,Relazione,Emozione,N_surr,mean_surr,SD_surr,U_surr_stim,p_surr_stim,N_stim,mean_stim,SD_stim,U_stim_copr,p_stim_copr,N_copr,mean_copr,SD_copr,issignif_surr_stim,p_surr_stim-corr,issignif_stim_copr,p_stim_copr-corr
0,U,EMBRS,190,0.5729706413233044,0.3677728229881376,4726.0,1.3718125294347792e-31,171,1.086391146669897,0.3225650816152147,1358.0,0.1210574814009362,19,1.1390908354561637,0.312808912495097,True,1.2346312764913014e-30,False,0.21790346652168513
1,F,EMBRS,276,0.5046824817366392,0.3592228111956462,8362.0,6.056149696077813e-52,253,1.065692925422801,0.3047883456444437,1896.0,0.0028549901958749577,23,1.22964863669171,0.22438495958229754,True,1.0901069452940065e-50,False,0.051389823525749244
2,L,EMBRS,231,0.6256392283806236,0.40852230352566704,9029.0,2.336711639144961e-30,210,1.085654322314821,0.3570802698554343,1672.0,0.0341007680002864,21,1.2902060798766353,0.4741816030299534,True,1.4020269834869767e-29,False,0.18562699223090784
3,U,SAD,190,0.9565852528132747,0.7529190006884072,15065.0,0.11674731070298056,171,1.020900764539036,0.7755547015569823,1374.0,0.1358059983120941,19,1.104859413446752,0.6434494081416718,False,0.12361479956786177,False,0.22222799723797215
4,F,SAD,276,0.9779022951145674,0.7677224276299417,29146.0,0.0005114179423247703,253,1.1535354820992882,0.7544585684534372,2404.0,0.08411696595692036,23,1.3449845620832588,0.8569642259491165,True,0.0013150747088351237,False,0.18562699223090784
5,L,SAD,231,0.9163079718509052,0.5795573145752193,20273.0,0.0014478949179057563,210,1.0551976425791463,0.5684007069668888,2379.0,0.2761918447348665,21,1.1555698538614756,0.9404187529735895,True,0.0028957898358115126,False,0.33143021368183984
6,U,FEAR,190,0.7598570082133459,0.5874509178692648,13586.0,0.0036228788797953203,171,0.8659461571849018,0.5471502108398498,1264.0,0.05670214646971084,19,1.2010733684403923,0.8907198781772093,True,0.006521181983631576,False,0.18562699223090784
7,F,FEAR,276,0.6814763489557626,0.44677382363126555,29480.0,0.0009874526688108671,253,0.8034246426828927,0.4938106055845724,2357.0,0.06601548777182244,23,0.9294828667009168,0.4099550759957996,True,0.002221768504824451,False,0.18562699223090784
8,L,FEAR,231,0.8156111277456842,0.4506917948182487,22015.0,0.046929247298102494,210,0.8843803026003288,0.4676465299795669,2255.0,0.5686543453434215,21,0.8777446919906295,0.5069115094556351,False,0.06497895779737269,False,0.5686543453434215
9,U,CALMNESS,190,0.8306650267759647,0.7773449368761458,15248.0,0.1570736241703894,171,0.8924753689277533,0.8079714452786113,1323.0,0.09281349611545392,19,1.0129372186741954,0.8364686724221505,False,0.1570736241703894,False,0.18562699223090784
10,F,CALMNESS,276,0.8665860282941417,0.6460373893564774,32497.0,0.08440775021564384,253,0.9211876856386292,0.6486617161722585,2623.0,0.2175907751803393,23,1.028662209687417,0.7123155423717604,False,0.10308470907908171,False,0.3012795348650852
11,L,CALMNESS,231,0.8921940472513136,0.5896739370010791,22428.0,0.0859039242325681,210,0.9540445849948038,0.591169395404856,2098.0,0.3576547704694668,21,0.9898284552574378,0.5765844802025313,False,0.10308470907908171,False,0.37869328637943545
12,U,LOVE,190,1.1892096093810847,0.6697818769251845,13994.0,0.011506615570138306,171,1.3479017782499463,0.7362330096780406,1512.0,0.3111786042651421,19,1.4578251589692086,0.8241877655282697,True,0.01725992335520746,False,0.3500759297982849
13,F,LOVE,276,1.1441536123046132,0.8193076952980447,32674.0,0.10111369827389,253,1.2279771080242468,0.836212322648139,2412.0,0.08753803109683622,23,1.4299552178541473,0.7909139420490304,False,0.11375291055812625,False,0.18562699223090784
14,L,LOVE,231,1.2461492909621372,0.7622526800140208,20734.0,0.004222860860569334,210,1.399903788451399,0.782757546913745,1747.0,0.0585786691374526,21,1.644703238695849,0.8242785010738051,True,0.006910135953658909,False,0.18562699223090784
15,U,PRIDE,190,0.6813023517239299,0.40066025863951527,11728.0,2.5323909809843814e-06,171,0.8625997053598985,0.3990993760277844,1295.0,0.07398278192328314,19,1.0521136832738534,0.4996832794789079,True,9.116607531543774e-06,False,0.18562699223090784
16,F,PRIDE,276,0.5898266197091737,0.406798832975697,20105.0,1.6938662525271814e-17,253,0.9262679225302523,0.47703379459076994,2612.0,0.20886396268159635,23,0.9895713891607246,0.48659244580046496,True,7.622398136372317e-17,False,0.3012795348650852
17,L,PRIDE,231,0.7626377518250853,0.49069081075206755,19747.0,0.0003729958192298517,210,0.9330516834572212,0.5290338301514234,2021.0,0.2648580670973512,21,1.0127984121410851,0.6086162664459752,True,0.0011189874576895552,False,0.33143021368183984
